<?xml version="1.0" encoding="utf-8"?>
<!-- Generator: Adobe Illustrator 21.1.0, SVG Export Plug-In . SVG Version: 6.00 Build 0)  -->
<svg version="1.1" id="Слой_1" xmlns="http://www.w3.org/2000/svg" xmlns:xlink="http://www.w3.org/1999/xlink" x="0px" y="0px"
	 viewBox="0 0 100 100" style="enable-background:new 0 0 100 100;" xml:space="preserve">
<style type="text/css">
	.st0{fill:#127301;}
	.st1{fill:#71472B;}
	.st2{fill:#5D3B1F;}
	.st3{fill:#4EA501;}
	.st4{fill:#349404;}
	.st5{fill:#41960A;}
	.st6{fill:#3F9C00;}
	.st7{fill:#0D6801;}
	.st8{fill:#78C50E;}
	.st9{fill:#348400;}
	.st10{fill:#2DA201;}
	.st11{fill:#6DC308;}
	.st12{fill:#7FC800;}
	.st13{fill:#085C03;}
	.st14{fill:#89CB01;}
</style>
<g>
	<path class="st0" d="M62.9,3.3c4,5.6,7.7,10.6,11.7,16.2c0.2,0.3,0.3,0.6,0.5,0.9c-0.2,0.7-0.6,0.1-0.9,0
		c-4.4-1.5-8.7-3.3-13.1-4.9c-5.5-2.3-11.1-4.3-16.6-6.4C41,7.8,37.5,6.3,33.9,5c-0.8-0.3-2.1-0.8-2.8-1.6C39.1,3.3,61,3.3,62.9,3.3
		z"/>
	<path class="st1" d="M44,96c3.6-2.1,4.8-5.5,5-9.4c0.3-5.6,0.4-11.3,0.5-16.9c0-2.8,0.1-5.6-0.2-8.5c-0.3-3.2-1.6-5.5-4.7-6.6
		c2.1-0.8,4.3-0.8,6.5-0.5c0.4,0.1,0.9,0.1,1.2,0.3c0.1,0.1,0.3,0.2,0.4,0.3c0.8,1.1,0.6,2.3,0.5,3.5c-0.3,2.9-0.2,5.8-0.4,8.6
		c-0.5,8.9-0.2,17.9-0.3,26.9c0,0.8,0.1,1.6-0.4,2.2C49.4,96,46.7,96,44,96z"/>
	<path class="st2" d="M52,96c0-7.3,0.5-40.7,0.3-41.1c1.1-0.3,3.7-0.1,4.4,0.9c-0.7,1.1-1.2,2.9-1.3,4.1c-0.4,4.6-0.5,9.3-0.4,13.9
		c0.1,3.7,0.1,7.4,0.1,11.1c0,2.9,0.4,5.6,2,8.1c0.8,1.2,2,2,2.9,3C57.4,96,54.7,96,52,96z"/>
	<path class="st3" d="M51.5,53.8c-3.2-0.8-5.7-3.4-8.8-4.5c-1.4-0.5-2.5-0.5-2.9-1.9c-0.2-0.7-0.4-1.4-1.2-1.7
		c-0.3,0.1-0.6,0-0.9-0.1c-3.2-1.5-6.5-2.9-9.7-4.3c-6.9-3-13.8-6-20.7-9.1C6.9,32,6.5,31.8,6,32c0,0.1,0,0.2,0,0.2
		c1,1.6,12.7,16.5,17.2,22.2c0.2,0.3,0.5,0.5,1,0.5c4.8-0.3,32.2,0.5,34.8,1C59,55.4,51.9,54,51.5,53.8z"/>
	<path class="st4" d="M70.7,22.2c-0.2,0-0.3,0-0.5,0c-2.8-1.9-5.8-3.6-8.3-5.9c-0.1-0.3-0.4-0.5-0.8-0.5c-0.1-0.3,0.1-0.4,0.2-0.5
		c4.6,1.8,9.1,3.6,13.7,5.2c0.2,0.1,0.3,0.3,0.3,0.5c0,0.1,0,0.1-0.1,0.2c-0.5,0.6-1.2,0.4-1.8,0.5C72.6,21.8,71.6,21.8,70.7,22.2z"
		/>
	<path class="st5" d="M76.4,25.9c-1.3-0.1-2.1-1.3-3.2-1.8c0.6-1.1,1.2-2.1,2-3.1c0,0,0.1-0.1,0.1-0.1C76,22.5,76.2,24.2,76.4,25.9z
		"/>
	<path class="st6" d="M59,14.3c-6.6-2.4-13.1-5-19.6-7.5c-2.5-1-7-3.4-8.4-3.4c-0.1,0.1-0.1,0.1-0.2,0c-0.7,0.4-4.2,4.5-5.4,6
		c-1,1.1-2,2.3-3,3.5c0,0,0,0,0,0c0,0,0,0,0,0c-2.1,2.3-4.2,4.6-6.2,6.9c-3.6,4-7.2,8.1-10.8,12.1c0,0.2,0.3,0.5,0.5,0.5
		c0.1,0,0.3-0.1,0.4-0.1c10.9-1.7,21.8-3.5,32.8-5.2c0.8,0,0.9-0.9,1.4-1.3c0.8-0.8,5-6.4,5.8-6.6c4.6-1.2,9.3-2,14-3.2
		c0.3,0,0.6,0.1,0.8-0.3c0.1-0.2,0.2-0.3,0.2-0.5C60.5,15.1,59.8,14.5,59,14.3z"/>
	<path class="st7" d="M38.6,45.8c-0.3,0.7-0.7,0.2-1,0.1c-6.1-2.7-12.3-5.4-18.4-8.1C15,35.9,10.8,34,6.6,32.2
		C6.4,32.1,6.2,32.1,6,32c2.2-0.8,4.5-0.8,6.7-1.2c4.2-0.8,8.4-1.5,12.6-2c4.5-0.6,9-1.5,13.5-2.1c0.1,0,0.3,0.1,0.4,0.2
		c0.2,0.5-0.2,0.7-0.4,1c-1.5,2-3,3.9-4.5,5.8c-0.4,0.4-0.5,0.8-0.2,1.3c1.3,3.3,2.7,6.6,4.2,9.8C38.5,45.1,38.7,45.4,38.6,45.8z"/>
	<path class="st8" d="M59.5,15.9c-3.3,0.7-6.5,1.5-9.8,2.2c-2.7,0.5-4.7,1-4.7,1s-9.4,13.1-11.1,15.3c0.2,0.6,0.4,0.4,0.6,0.3
		c1.8-1.1,22-16,25.9-18.7C60.1,15.7,59.8,15.8,59.5,15.9z"/>
	<path class="st9" d="M67.3,60c-2.7-2.4-5.7-4.5-8.6-6.9c-2.4-2-5-3.8-7.5-5.7c-5-3.8-9.9-7.7-15-11.5c-0.4-0.3-0.7-0.7-1.3-0.5
		c0.1-0.4-0.2-0.7-0.5-1c-0.6-0.2-0.8-0.1-0.6,0.5c1.5,3.7,4.8,14,4.8,14s25.4,10.5,28.9,11.6C67.5,60.4,67.4,60.2,67.3,60z"/>
	<path class="st10" d="M93.4,48.4c-0.1-0.1-0.3-0.2-0.4-0.3c0-0.1,0-0.1-0.1-0.2c-1.1-1.7-2.6-2.9-4-4.3c-1.2-1.2-2.5-2.4-3.6-3.7
		c-4.5-4.3-8.8-9-13.2-13.4c-2.5-2.5-5.1-5-7.6-7.6c-0.9-0.9-1.9-1.6-2.5-2.8c-0.2-0.4-0.5-0.6-0.9-0.5c-0.3,0.1-0.6,0.1-0.9,0.2
		c-0.3,0.1-0.5,0.2-0.7,0.3C55,19.2,33.5,33.9,33.9,34.4c0.4,0.4,8.3,2.7,11.5,3.3c2.5,0.5,25.5,6.3,31,7.6
		c3.6,0.9,7.2,1.7,10.8,2.6c1.9,0.5,3.8,1,5.8,1.4c0.3,0.1,0.7,0.2,0.8-0.2C93.8,48.8,93.6,48.6,93.4,48.4z"/>
	<path class="st11" d="M86.8,38.8C85.6,37.1,80.2,28,80.2,28S64,17.6,61.3,15.6c1.3,1.8,7.8,8.2,10.6,11c0,0,0,0,0,0
		c1.5,1.6,3.1,3.1,4.6,4.7c2.8,3,5.7,5.9,8.6,8.7c1.1,1.3,2.3,2.5,3.6,3.7c1.3,1.4,3.4,4.1,5,5.3C93.8,48.7,88.8,41.5,86.8,38.8z"/>
	<path class="st12" d="M83.9,46.7c-2.5-0.6-5-1.1-7.5-1.7c0,0,0,0,0,0c-3.4-0.9-36.1-8.9-41.9-10.3c0,0.4,0.4,0.5,0.5,0.7
		c0.5,0.3,0.9,0.6,1.4,1c5,3.8,10,7.7,15,11.5c4.1,3.1,8.1,6.4,12.2,9.5c1.2,0.9,4,3.2,4,3.2s26-11.1,26.2-11.5
		C93.4,49,86.9,47.4,83.9,46.7z"/>
	<path class="st13" d="M75.3,21c-0.5,1.1-0.6,1.2-1.4,2.9c-0.9-0.6-3.4-2.2-3.4-2.2S73.9,21.2,75.3,21z"/>
	<path class="st14" d="M62.1,53.9c0.1,0.1,0.2,0.2,0.2,0.4c0,0.2-0.2,0.3-0.3,0.2c-0.2,0-0.3-0.2-0.3-0.3
		C61.7,54,61.8,53.9,62.1,53.9z"/>
</g>
</svg>
