<?xml version="1.0" encoding="utf-8"?>
<!-- Generator: Adobe Illustrator 21.1.0, SVG Export Plug-In . SVG Version: 6.00 Build 0)  -->
<svg version="1.1" id="Слой_1" xmlns="http://www.w3.org/2000/svg" xmlns:xlink="http://www.w3.org/1999/xlink" x="0px" y="0px"
	 viewBox="0 0 100 100" style="enable-background:new 0 0 100 100;" xml:space="preserve">
<style type="text/css">
	.st0{fill:#FFFFFF;}
	.st1{fill:#127301;}
	.st2{fill:#71472B;}
	.st3{fill:#5D3B1F;}
	.st4{fill:#4EA501;}
	.st5{fill:#349404;}
	.st6{fill:#41960A;}
	.st7{fill:#3F9C00;}
	.st8{fill:#0D6801;}
	.st9{fill:#78C50E;}
	.st10{fill:#348400;}
	.st11{fill:#2DA201;}
	.st12{fill:#6DC308;}
	.st13{fill:#7FC800;}
	.st14{fill:#085C03;}
	.st15{fill:#89CB01;}
	.st16{fill:#F5C507;}
</style>
<rect x="30.8" y="49.2" class="st0" width="43.8" height="46.3"/>
<g>
	<path class="st1" d="M59.9,5.4c3,4.2,6.2,9.2,9.2,13.4c0.1,0.2,0.3,0.4,0.4,0.7c-0.2,0.5-0.5,0.1-0.7,0c-3.3-1.1-6.6-2.5-9.8-3.7
		c-4.1-1.7-8.4-3.2-12.5-4.9c-2.7-1-5.3-2.1-8-3.1c-0.6-0.2-1.6-1-2.1-1.7C42.4,6.2,58.5,5.4,59.9,5.4z"/>
	<path class="st2" d="M46.1,76.4c2.7-1.6,3.6-4.1,3.7-7.1c0.2-4.2,0.3-8.5,0.4-12.7c0-2.1,0-4.3-0.2-6.4c-0.3-2.4-1.2-4.2-3.6-5
		c1.6-0.6,3.3-0.6,4.9-0.4c0.3,0,0.6,0.1,0.9,0.2c0.1,0.1,0.2,0.2,0.3,0.3c0.6,0.8,0.5,1.8,0.4,2.6c-0.2,2.2-0.2,4.3-0.3,6.5
		c-0.4,6.7-0.2,13.5-0.2,20.2c0,0.6,0.1,1.2-0.3,1.7C50.1,76.4,48.1,76.4,46.1,76.4z"/>
	<path class="st3" d="M52.2,76.4c0-5.5,0.4-30.7,0.2-31c0.9-0.2,2.8-0.1,3.3,0.7c-0.5,0.8-0.9,2.2-1,3.1c-0.3,3.5-0.4,7-0.3,10.5
		c0.1,2.8,0,5.6,0.1,8.4c0,2.2,0.3,4.2,1.5,6.1c0.6,0.9,1.5,1.5,2.2,2.3C56.2,76.4,54.2,76.4,52.2,76.4z"/>
	<path class="st4" d="M51.8,44.6c-2.4-0.6-4.3-2.6-6.6-3.4c-1-0.4-1.9-0.4-2.2-1.5c-0.1-0.5-0.3-1.1-0.9-1.3c-0.2,0.1-0.4,0-0.7-0.1
		c-2.4-1.1-4.9-2.2-7.3-3.2c-5.2-2.3-10.4-4.5-15.6-6.8c-0.3-0.1-0.6-0.4-1-0.1c0,0.1,0,0.1,0,0.2c0.7,1.2,9.6,12.4,13,16.7
		c0.2,0.2,0.4,0.4,0.7,0.4c3.6-0.2,24.3,0.3,26.2,0.7C57.4,45.9,52,44.8,51.8,44.6z"/>
	<path class="st5" d="M66.2,20.9c-0.1,0-0.2,0-0.4,0c-2.1-1.4-4.4-2.7-6.3-4.5C59.5,16.1,59.3,16,59,16c-0.1-0.2,0.1-0.3,0.2-0.4
		c3.4,1.3,6.8,2.7,10.3,3.9c0.1,0.1,0.2,0.2,0.2,0.4c0,0,0,0.1-0.1,0.1c-0.4,0.4-0.9,0.3-1.3,0.4C67.6,20.6,66.9,20.6,66.2,20.9z"/>
	<path class="st6" d="M70.5,23.6c-1-0.1-1.6-0.9-2.4-1.4c0.5-0.8,0.9-1.6,1.5-2.3c0,0,0.1-0.1,0.1-0.1
		C70.2,21.1,70.3,22.3,70.5,23.6z"/>
	<path class="st7" d="M57.4,14.9c-4.9-1.8-9.8-3.7-14.7-5.7c-1.9-0.8-6.5-3.1-6.5-3.1c-0.5,0.3-4.1,4.2-5,5.3
		c-0.7,0.9-13.8,17.1-13.7,17.1c0.1,0,0.2,0,0.3-0.1c8.2-1.3,16.5-2.6,24.7-3.9c0.6,0,0.7-0.7,1.1-1c0.6-0.6,3.8-4.8,4.4-4.9
		c3.5-0.9,7-1.5,10.5-2.4c0.2,0,0.5,0,0.6-0.2c0.1-0.1,0.1-0.3,0.2-0.4C58.5,15.5,58,15.1,57.4,14.9z"/>
	<path class="st8" d="M42,38.6c-0.2,0.6-0.5,0.2-0.8,0.1c-4.6-2-9.2-4.1-13.8-6.1c-3.2-1.4-6.3-2.8-9.5-4.2
		c-0.1-0.1-0.3-0.1-0.5-0.1c1.6-0.6,3.4-0.6,5.1-0.9c3.2-0.6,6.3-1.1,9.5-1.5c3.4-0.5,6.8-1.1,10.2-1.6c0.1,0,0.2,0.1,0.3,0.2
		c0.2,0.4-0.1,0.5-0.3,0.8c-1.1,1.5-2.3,2.9-3.4,4.4c-0.3,0.3-0.4,0.6-0.1,1c1,2.5,2.1,4.9,3.1,7.4C42,38.1,42.1,38.3,42,38.6z"/>
	<path class="st9" d="M57.8,16.1c-2.4,0.6-4.9,1.2-7.4,1.6c-2,0.4-3.5,0.7-3.5,0.7s-7.1,9.9-8.4,11.6c0.1,0.5,0.3,0.3,0.4,0.2
		c1.3-0.9,16.6-12.1,19.5-14.1C58.2,15.9,58,16,57.8,16.1z"/>
	<path class="st10" d="M63.6,49.4c-2.1-1.8-4.3-3.4-6.4-5.2c-1.8-1.5-3.8-2.9-5.6-4.3c-3.8-2.9-7.5-5.8-11.3-8.7
		c-0.3-0.2-0.6-0.5-1-0.4c0.1-0.3-0.2-0.5-0.4-0.8c-0.4-0.2-0.6-0.1-0.4,0.4c1.1,2.8,3.6,10.6,3.6,10.6s19.2,7.9,21.7,8.7
		C63.8,49.6,63.7,49.5,63.6,49.4z"/>
	<path class="st11" d="M83.3,40.6c-0.1-0.1-0.2-0.2-0.3-0.3c0-0.1,0-0.1-0.1-0.2c-0.8-1.2-2-2.2-3-3.3c-0.9-0.9-1.8-1.8-2.7-2.8
		c-3.4-3.3-6.6-6.8-9.9-10.1c-1.9-1.9-3.8-3.8-5.7-5.7c-0.6-0.7-1.5-1.2-1.9-2.1c-0.2-0.3-0.4-0.4-0.7-0.4c-0.2,0-0.5,0.1-0.7,0.2
		c-0.2,0.1-0.4,0.1-0.5,0.2C54.4,18.6,38.2,29.7,38.5,30c0.3,0.3,6.3,2,8.6,2.5c1.9,0.4,19.2,4.7,23.3,5.7c2.7,0.7,5.4,1.3,8.1,1.9
		c1.4,0.4,2.9,0.8,4.3,1.1c0.2,0,0.5,0.1,0.6-0.1C83.6,40.9,83.4,40.7,83.3,40.6z"/>
	<path class="st12" d="M78.4,33.4c-0.9-1.3-5-8.2-5-8.2s-12.2-7.8-14.2-9.3c1,1.3,5.9,6.2,8,8.3c0,0,0,0,0,0
		c1.1,1.2,2.3,2.4,3.4,3.6c2.1,2.3,4.3,4.4,6.5,6.6c0.8,1,1.7,1.9,2.7,2.8c1,1.1,2.6,3.1,3.7,4C83.6,40.8,79.8,35.4,78.4,33.4z"/>
	<path class="st13" d="M76.2,39.3c-1.9-0.4-3.8-0.9-5.7-1.3c0,0,0,0,0,0c-2.6-0.6-27.2-6.7-31.6-7.8c0,0.3,0.3,0.4,0.4,0.6
		c0.3,0.2,0.7,0.5,1,0.7c3.8,2.9,7.5,5.8,11.3,8.7c3.1,2.3,6.1,4.8,9.2,7.1c0.9,0.7,3,2.4,3,2.4s19.6-8.4,19.7-8.7
		C83.3,41,78.4,39.8,76.2,39.3z"/>
	<path class="st14" d="M69.7,19.9c-0.4,0.8-0.4,0.9-1.1,2.2c-0.7-0.5-2.6-1.7-2.6-1.7S68.6,20.1,69.7,19.9z"/>
	<path class="st15" d="M59.7,44.7c0,0.1,0.1,0.2,0.2,0.3c0,0.2-0.1,0.2-0.3,0.2c-0.2,0-0.2-0.1-0.2-0.3
		C59.4,44.8,59.5,44.7,59.7,44.7z"/>
</g>
<g>
	<path class="st16" d="M50.1,91c1.7,0.4,2.6-0.2,2.8-1.9c0.3-2.7,0.1-5.4,0.1-8.1c0-0.8,0-1.5,0-2.3c0-0.3,0-0.6,0.3-0.6
		c0.5,0,0.4,0.4,0.4,0.6c0,2,0,4.1,0,6.1c0,1.4,0,2.7,0,4.1c0,1.8-1,2.9-2.6,2.9c-1.8,0-2.8-1-2.9-2.9c-0.1-3.4,0-6.8,0-10.2
		c0-0.3-0.1-0.7,0.3-0.7c0.4,0.1,0.4,0.5,0.4,0.9c0,3.1,0,6.1,0,9.2c0,0.6-0.1,1.2,0.2,1.8C49.3,90.5,49.6,90.8,50.1,91z"/>
	<path class="st16" d="M39.1,88.2c0,2.5-1.3,3.8-3.6,3.6c-1.7-0.2-2.6-2.1-2.4-3.6c0-0.1,0.1-0.3,0.2-0.3c0.2,0,0.3,0.1,0.4,0.3
		c0.1,0.4,0.1,0.9,0.2,1.3c0.2,1,1,1.6,2,1.6c1,0,1.9-0.6,2.2-1.5c0.6-1.9,0-3.2-1.8-4.1c-0.4-0.2-0.8-0.4-1.1-0.6
		c-2.4-1.1-2.5-3.8-1.6-5.7c0.6-1.2,2.4-1.7,3.7-1.1c1.1,0.5,2,2.1,1.7,3.4c0,0.2-0.1,0.3-0.3,0.4c-0.2,0-0.4-0.1-0.4-0.3
		c-0.1-0.2-0.1-0.4-0.1-0.7c-0.2-1.6-1.1-2.4-2.4-2.3c-1.2,0.1-2.1,1.4-2.1,2.7c0,1.7,0.9,2.7,2.4,3.3c0.8,0.3,1.6,0.8,2.2,1.5
		C39,86.8,39.2,87.5,39.1,88.2z"/>
	<path class="st16" d="M43.8,85.4c0,1.8,0,3.5,0,5.3c0,0.4,0.3,1.1-0.4,1.1c-0.6,0-0.4-0.7-0.4-1.1c0-3.6,0-7.2,0-10.8
		c0-0.9-0.2-1.2-1.2-1.1c-0.5,0.1-1,0-1.6,0c-0.3,0-0.5-0.1-0.4-0.4c0-0.2,0.2-0.3,0.4-0.3c2.1-0.1,4.1-0.1,6.2,0
		c0.2,0,0.5,0,0.5,0.3c0,0.3-0.3,0.4-0.5,0.4c-0.6,0-1.2,0.1-1.8,0c-0.8-0.1-1,0.3-1,1C43.9,81.6,43.8,83.5,43.8,85.4z"/>
	<path class="st16" d="M62.6,84.9c0-2,0-4,0-6c0-0.3-0.2-0.8,0.4-0.8c0.4,0,0.4,0.4,0.4,0.8c0,4,0,8.1,0,12.1c0,0.4,0,0.8-0.5,0.8
		c-0.5,0-0.3-0.5-0.3-0.8C62.6,89,62.6,86.9,62.6,84.9C62.6,84.9,62.6,84.9,62.6,84.9z"/>
	<g>
		<path class="st16" d="M78.9,44.2c0-0.4,0-0.7-0.1-1.1c-3.8,1.6-6.9,2.9-9.6,4c-0.7,0.4-1.4,0.7-2.2,1.1c-0.4,0.2-1.6,0.7-1.8,0.8
			c-0.7,0.3-1.4,0.2-2-0.1c-0.4-0.2-0.9-0.2-1.2-0.5c-2-0.9-4-1.6-6-2.4c-0.4-0.1-0.8-0.2-1.1,0.1c-0.3,0.4-0.4,0.9-0.5,1.4
			c-0.2,1.4-0.3,2.7-0.3,4.1c-0.1,1.6-0.1,10.3,0.3,11.9c0.2-9.5,2.1-11.3,3.8-12.1c2.4-1.1,5-1.2,7.6-1c2.8,0.2,5.1,1.3,6.1,4.1
			c0.3,0.9,0.4,1.9,0.5,2.9c0,0.6-0.1,1.2-0.1,1.8c0,0.2,0,0.3-0.1,0.4c-0.1,0.1-0.4,0.2-0.7,0.2c-1.8,0-3.7-0.1-5.5,0
			c-0.8,0-1.2-0.2-1.1-1.1c0-0.4-0.1-0.8-0.2-1.2c-0.2-0.9-0.9-1-1.7-0.9c-0.8,0.1-1.3,0.4-1.3,1.3c0,1.9-0.2,3.9-0.1,5.8
			c0.1,1.8,0,3.5,0.4,5.3c0.4,1.5,0.7,1.7,2.2,1.6c0.8-0.5,0.9-1.3,0.9-2.1c0.1-0.8-0.2-1.2-1-1.1c-0.7,0.1-1-0.3-0.9-1
			c0-1.4,0-2.7,0-4.1c0-0.7,0.3-1,1-1c2.5,0,5,0,7.5,0c0.3,0,0.5,0,0.7,0.3c0,2.9,0,5.9,0,8.8c-0.1,2.5-1.1,4.5-3.4,5.8
			c-0.2,0.1-0.5,0.1-0.5,0.5c1.1,0,2.1,0,3.2,0c0.7,0,0.9,0.2,0.9,0.9c0,4.8,0,9.7,0,14.5c0,0.7-0.3,0.9-0.9,0.9
			c-13.1,0-26.3,0-39.4,0c-0.8,0-1-0.3-1-1c0-4.9,0-9.8,0-14.7c0-0.8,0.2-1,1-1c1.1,0,2.1,0.1,3.4-0.2c-2-1-3-2.4-3.6-4.3
			c-0.6-2.1-0.6-4.3-0.6-6.4c0-1.6,0.4-7.7,0.9-9.1c0.9-2.4,2-4.6,4.7-5.3c2.3-0.6,4.7-0.6,7-0.2c1.7,0.3,3,1.2,3.9,2.7
			c0.6,0.8,1.8,2.1,2.1,8.5c0.3-2.3,0.3-9.9,0-12.2c-0.3-2.5-1.3-4.4-4-5.1c-2-0.1-15.7,0.2-15.7,0.2s-3-3.7-5.9-7c0,0.5,0,1,0,1.6
			c0,18.9,0,37.7,0,56.6c0,1.3,0,1.3,1.4,1.3c17.2,0,34.4,0,51.6,0c0.2,0,0.5,0,0.7,0c0.5,0,0.7-0.2,0.7-0.7c0-0.3,0-0.7,0-1
			C78.9,78.4,78.9,61.3,78.9,44.2z M69.7,60.4C69.7,60.4,69.7,60.4,69.7,60.4C69.7,60.4,69.7,60.4,69.7,60.4
			C69.7,60.4,69.7,60.4,69.7,60.4z"/>
		<path class="st16" d="M77.5,3.5c-17.2,0-34.3,0-51.5,0c-0.2,0-0.5,0-0.7,0c-0.6,0-0.7,0.2-0.7,0.8c0,4.8,0.1,15.1,0.1,15.1
			s2.4-3.2,3.3-4.1c1.5-1.6,2.9-3.4,4.5-5c1.1-1.1,2-2.4,3.1-3.5c0.4-0.4,0.8-0.6,1.4-0.6c1.1,0,2.2,0,3.2,0c1.9,0,3.7-0.1,5.6-0.1
			c4.4,0,8.7-0.3,13.1-0.3c0.8,0,1.3,0.3,1.7,0.9c1.2,1.7,2.3,3.3,3.5,5c1.7,2.4,3.5,4.7,5.1,7.2c0.4,0.4,0.6,0.9,0.6,1.4
			c0.1,0.8,0.3,1.7,0.5,2.5c0.2,0.7,0.5,1.3,1.2,1.6c1.4,0.6,2.1,1.8,2.9,2.9c1.1,1.7,2.3,3.5,3.4,5.2c0.2,0.4,0.7,1,1.2,1.6
			c0-0.3,0.1-1.8,0.1-2.1c0-9,0-18,0-27C78.9,3.5,78.9,3.5,77.5,3.5z"/>
		<path class="st16" d="M40,68.1c0,0.8,0.1,1.7,1.2,1.9c0.7,0.1,1.2-0.6,1.3-1.9c0.3-3.2,0.1-6.4,0-9.7c0-0.7-0.3-1.4-1.2-1.4
			c-0.9,0-1.1,0.7-1.1,1.4C40,60.1,39.9,66.6,40,68.1z"/>
	</g>
	<path class="st16" d="M70.5,84.9C70.5,84.9,70.5,84.9,70.5,84.9c0-1.3,0-2.5,0-3.8c0-0.1,0-0.3,0-0.4C70.3,79,69.2,78,67.6,78
		c-1.9,0-2.9,1-3,3c-0.1,2.6,0,5.2,0,7.8c0,0.7,0.2,1.4,0.7,2c0.8,0.9,2,1.3,3.3,0.9c1.2-0.4,1.8-1.4,1.9-2.6
		C70.6,87.7,70.5,86.3,70.5,84.9z M69.7,89.3c-0.2,1.2-1,1.9-2.2,1.9c-1.2,0-2-0.8-2.1-2c-0.1-1.4,0-2.8,0-4.2c0,0,0,0,0,0
		c0-1.4-0.1-2.8,0-4.2c0.1-1.2,0.7-1.9,1.8-2c1-0.2,1.9,0.2,2.3,1.1c0.2,0.4,0.3,0.9,0.3,1.3C69.8,83.8,70,86.6,69.7,89.3z"/>
	<path class="st16" d="M60.9,81.3c0-1.8-0.9-3.5-3.4-3.3c-0.4,0-0.9,0-1.3,0c-0.7-0.1-1,0.2-1,0.9c0,2,0,4,0,6c0,1.4,0,2.9,0,4.3
		c0,2.7,0,2.7,2.7,2.6c1.5-0.1,2.4-0.8,2.7-2.2c0.2-0.6,0.2-1.3,0.2-1.9C60.9,85.6,61,83.4,60.9,81.3z M60.2,88.4
		c0,2.1-1.7,3.3-3.8,2.8c-0.5-0.1-0.4-0.5-0.4-0.8c0-0.9,0-1.8,0-2.7c0-0.9,0-1.8,0-2.7c0,0,0,0,0,0c0-1.8,0-3.5,0-5.3
		c0-0.7,0.2-0.9,0.9-0.9c0.7,0,1.5,0,2.1,0.3c0.9,0.5,1.2,1.4,1.2,2.4C60.3,83.7,60.3,86.1,60.2,88.4z"/>
</g>
</svg>
